{
	"info": {
		"_postman_id": "9e61967e-ad3b-473b-b1dc-89b3a73b0930",
		"name": "SchoolTeams Parent Service",
		"schema": "https://schema.getpostman.com/json/collection/v2.1.0/collection.json"
	},
	"item": [
		{
			"name": "Optional",
			"item": [
				{
					"name": "http://localhost:8080/api/v1/optional/update/{username}",
					"request": {
						"method": "PUT",
						"header": [],
						"body": {
							"mode": "raw",
							"raw": "{\r\n    \"date_of_birth\": \"1990-01-01T09:00:00\",\r\n    \"mobile_number\": \"99999999\",\r\n    \"profile_picture\": \"test.png\",\r\n    \"medical_notes\": \"None\"\r\n}",
							"options": {
								"raw": {
									"language": "json"
								}
							}
						},
						"url": {
							"raw": "http://localhost:8080/api/v1/optional/update/lhskage",
							"protocol": "http",
							"host": [
								"localhost"
							],
							"port": "8080",
							"path": [
								"api",
								"v1",
								"optional",
								"update",
								"lhskage"
							]
						},
						"description": "# This endpoint updates optional information\r\nThis endpoint requires the request to have a valid Authorization header that is issued by the School Teams auth service.\r\n## Endpoint expectation\r\nThe endpoint updates optional information\r\n\r\n## Response\r\n### 201 Created\r\nIf everything is good, the endpoint responds with a 201 status and the updated information.\r\n### 406 Not Acceptable\r\nIf the update didn't happen because of wrong entry the endpoint responds with 406 Not Acceptable.\r\n### 500 INTERNAL SERVER ERROR\r\nIf the method can't update the information, the endpoint responds with a 500 status."
					},
					"response": []
				},
				{
					"name": "http://localhost:8080/api/v1/optional/{person_id}",
					"request": {
						"method": "PUT",
						"header": [],
						"body": {
							"mode": "raw",
							"raw": "{\r\n    \"date_of_birth\": \"2020-09-02T21:00:00\",\r\n    \"mobile_number\": \"43212345\",\r\n    \"profile_picture\": \"dude.png\",\r\n    \"medical_notes\": \"dyslexia\"\r\n}",
							"options": {
								"raw": {
									"language": "json"
								}
							}
						},
						"url": {
							"raw": "http://localhost:8080/api/v1/optional/5",
							"protocol": "http",
							"host": [
								"localhost"
							],
							"port": "8080",
							"path": [
								"api",
								"v1",
								"optional",
								"5"
							]
						},
						"description": "# This endpoint updates optional information\r\nThis endpoint requires the request to have a valid Authorization header that is issued by the School Teams auth service.\r\n## Endpoint expectation\r\nThe endpoint updates optional information\r\n\r\n## Response\r\n### 201 Created\r\nIf everything is good, the endpoint responds with a 201 status and the updated information.\r\n### 406 Not Acceptable\r\nIf the update didn't happen because of wrong entry the endpoint responds with 406 Not Acceptable.\r\n### 500 INTERNAL SERVER ERROR\r\nIf the method can't update the information, the endpoint responds with a 500 status."
					},
					"response": []
				},
				{
					"name": "http://localhost:8080/api/v1/optional/user/{username}",
					"request": {
						"method": "GET",
						"header": [],
						"url": {
							"raw": "http://localhost:8080/api/v1/optional/user/amikalsen",
							"protocol": "http",
							"host": [
								"localhost"
							],
							"port": "8080",
							"path": [
								"api",
								"v1",
								"optional",
								"user",
								"amikalsen"
							]
						},
						"description": "# This endpoint gets optional information by username\r\nThis endpoint requires the request to have a valid Authorization header that is issued by the School Teams auth service.\r\n## Endpoint expectation\r\nThe endpoint selects optional information by username\r\n\r\n## Response\r\n### 200 OK\r\nIf everything is good, the endpoint responds with a 200 status and the information.\r\n### 404 Not Found\r\nIf there isn't information to get, the endpoint returns a 404 status.\r\n### 500 INTERNAL SERVER ERROR\r\nIf the method can't select the information, the endpoint responds with a 500 status."
					},
					"response": []
				},
				{
					"name": "http://localhost:8080/api/v1/optional",
					"request": {
						"method": "POST",
						"header": [],
						"body": {
							"mode": "raw",
							"raw": "{\r\n    \"date_of_birth\": \"2011-12-03T10:15:30\",\r\n    \"mobile_number\": \"12341234\",\r\n    \"profile_picture\": \"test.png\",\r\n    \"medical_notes\": \"Allergic to dust\"\r\n}",
							"options": {
								"raw": {
									"language": "json"
								}
							}
						},
						"url": {
							"raw": "http://localhost:8080/api/v1/optional",
							"protocol": "http",
							"host": [
								"localhost"
							],
							"port": "8080",
							"path": [
								"api",
								"v1",
								"optional"
							]
						},
						"description": "# This endpoint creates new optional information\r\nThis endpoint requires the request to have a valid Authorization header that is issued by the School Teams auth service.\r\n## Endpoint expectation\r\nThe endpoint creates new optional information\r\n\r\n## Response\r\n### 201 Created\r\nIf everything is good, the endpoint responds with a 201 status and the new information.\r\n### 406 Not Acceptable\r\nIf the update didn't happen because of wrong entry the endpoint responds with 406 Not Acceptable.\r\n### 500 INTERNAL SERVER ERROR\r\nIf the method can't create the information, the endpoint responds with a 500 status."
					},
					"response": []
				}
			],
			"protocolProfileBehavior": {}
		},
		{
			"name": "Person",
			"item": [
				{
					"name": "http://localhost:8080/api/v1/person",
					"request": {
						"method": "POST",
						"header": [],
						"body": {
							"mode": "raw",
							"raw": "{\r\n    \"firstname\": \"Geir\",\r\n    \"lastname\": \"Geirson\",\r\n    \"email\": \"gg@gmail.com\",\r\n    \"gender\": \"male\",\r\n    \"optional_id\": 1\r\n}",
							"options": {
								"raw": {
									"language": "json"
								}
							}
						},
						"url": {
							"raw": "http://localhost:8080/api/v1/person",
							"protocol": "http",
							"host": [
								"localhost"
							],
							"port": "8080",
							"path": [
								"api",
								"v1",
								"person"
							]
						},
						"description": "# This endpoint creates a person\r\nThis endpoint requires the request to have a valid Authorization header that is issued by the School Teams auth service.\r\n## Endpoint expectation\r\nThe endpoint creates a person\r\n\r\n## Response\r\n### 201 Created\r\nIf everything is good, the endpoint responds with a 201 status and the created person.\r\n### 406 Not Acceptable\r\nIf the creation didn't happen because of wrong entry the endpoint responds with 406 Not Acceptable.\r\n### 500 INTERNAL SERVER ERROR\r\nIf the method can't create the person, the endpoint responds with a 500 status."
					},
					"response": []
				},
				{
					"name": "http://localhost:8080/api/v1/person/{person_id}",
					"request": {
						"method": "PUT",
						"header": [],
						"body": {
							"mode": "raw",
							"raw": "{\r\n    \"firstname\": \"Gedsadsair\",\r\n    \"lastname\": \"Laurdsadsason\",\r\n    \"email\": \"gl@gmaildsadsa.com\",\r\n    \"gender\": \"madsale\"\r\n}",
							"options": {
								"raw": {
									"language": "json"
								}
							}
						},
						"url": {
							"raw": "http://localhost:8080/api/v1/person/83",
							"protocol": "http",
							"host": [
								"localhost"
							],
							"port": "8080",
							"path": [
								"api",
								"v1",
								"person",
								"83"
							]
						},
						"description": "# This endpoint updates a person\r\nThis endpoint requires the request to have a valid Authorization header that is issued by the School Teams auth service.\r\n## Endpoint expectation\r\nThe endpoint updates a person\r\n\r\n## Response\r\n### 201 Created\r\nIf everything is good, the endpoint responds with a 201 status and the updated person.\r\n### 406 Not Acceptable\r\nIf the update didn't happen because of wrong entry the endpoint responds with 406 Not Acceptable.\r\n### 500 INTERNAL SERVER ERROR\r\nIf the method can't post the person, the endpoint responds with a 500 status."
					},
					"response": []
				},
				{
					"name": "http://localhost:8080/api/v1/person/username/{username}",
					"request": {
						"method": "GET",
						"header": [],
						"url": {
							"raw": "http://localhost:8080/api/v1/person/username/parent2",
							"protocol": "http",
							"host": [
								"localhost"
							],
							"port": "8080",
							"path": [
								"api",
								"v1",
								"person",
								"username",
								"parent2"
							]
						},
						"description": "# This endpoint gets a person by username\r\nThis endpoint requires the request to have a valid Authorization header that is issued by the School Teams auth service.\r\n## Endpoint expectation\r\nThe endpoint selects a person by username\r\n\r\n## Response\r\n### 200 OK\r\nIf everything is good, the endpoint responds with a 200 status and the person.\r\n### 404 Not Found\r\nIf there isn't person to get, the endpoint returns a 404 status.\r\n### 500 INTERNAL SERVER ERROR\r\nIf the method can't select the person, the endpoint responds with a 500 status."
					},
					"response": []
				}
			],
			"protocolProfileBehavior": {}
		},
		{
			"name": "Child_parent",
			"item": [
				{
					"name": "http://localhost:8080/api/v1/child/parents/{username}",
					"request": {
						"method": "GET",
						"header": [],
						"url": {
							"raw": "http://localhost:8080/api/v1/child/parent/parent1",
							"protocol": "http",
							"host": [
								"localhost"
							],
							"port": "8080",
							"path": [
								"api",
								"v1",
								"child",
								"parent",
								"parent1"
							]
						},
						"description": "# This endpoint gets parents of a child\r\nThis endpoint requires the request to have a valid Authorization header that is issued by the School Teams auth service.\r\n## Endpoint expectation\r\nThe endpoint selects parents of a child\r\n\r\n## Response\r\n### 200 OK\r\nIf everything is good, the endpoint responds with a 200 status and the parents.\r\n### 404 Not Found\r\nIf there isn't any parents to get, the endpoint returns a 404 status.\r\n### 500 INTERNAL SERVER ERROR\r\nIf the method can't select the parents, the endpoint responds with a 500 status."
					},
					"response": []
				},
				{
					"name": "http://localhost:8080/api/v1/child/addChildWithTwoParents",
					"request": {
						"method": "POST",
						"header": [],
						"body": {
							"mode": "raw",
							"raw": "{\r\n    \"parent_1\": \"parent5\",\r\n    \"child\": \"amikalsen\",\r\n    \"parent_2\": \"parent1\"\r\n}",
							"options": {
								"raw": {
									"language": "json"
								}
							}
						},
						"url": {
							"raw": "http://localhost:8080/api/v1/child/addChildWithTwoParents",
							"protocol": "http",
							"host": [
								"localhost"
							],
							"port": "8080",
							"path": [
								"api",
								"v1",
								"child",
								"addChildWithTwoParents"
							]
						},
						"description": "# This endpoint creates a child_parent relationship\r\nThis endpoint requires the request to have a valid Authorization header that is issued by the School Teams auth service.\r\n## Endpoint expectation\r\nThe endpoint creates a child_parent relationship\r\n\r\n## Response\r\n### 201 Created\r\nIf everything is good, the endpoint responds with a 201 status and the created relation.\r\n### 406 Not Acceptable\r\nIf the update didn't happen because of wrong entry the endpoint responds with 406 Not Acceptable.\r\n### 500 INTERNAL SERVER ERROR\r\nIf the method can't create the relationship, the endpoint responds with a 500 status."
					},
					"response": []
				},
				{
					"name": "http://localhost:8080/api/v1/child/addChildWithOneParent",
					"request": {
						"method": "POST",
						"header": [],
						"body": {
							"mode": "raw",
							"raw": "{\r\n    \"parent_1\": \"parent5\",\r\n    \"child\": \"amikalsen\"\r\n}",
							"options": {
								"raw": {
									"language": "json"
								}
							}
						},
						"url": {
							"raw": "http://localhost:8080/api/v1/child/addChildWithOneParent",
							"protocol": "http",
							"host": [
								"localhost"
							],
							"port": "8080",
							"path": [
								"api",
								"v1",
								"child",
								"addChildWithOneParent"
							]
						},
						"description": "# This endpoint creates a child_parent relationship with only one parent\r\nThis endpoint requires the request to have a valid Authorization header that is issued by the School Teams auth service.\r\n## Endpoint expectation\r\nThe endpoint creates a child_parent relationship\r\n\r\n## Response\r\n### 201 Created\r\nIf everything is good, the endpoint responds with a 201 status and the created relation.\r\n### 406 Not Acceptable\r\nIf the update didn't happen because of wrong entry the endpoint responds with 406 Not Acceptable.\r\n### 500 INTERNAL SERVER ERROR\r\nIf the method can't create the relationship, the endpoint responds with a 500 status."
					},
					"response": []
				},
				{
					"name": "http://localhost:8080/api/v1/child/{username}",
					"request": {
						"method": "PUT",
						"header": [],
						"body": {
							"mode": "raw",
							"raw": "{\r\n    \"parent_2\": \"parent1\"\r\n}",
							"options": {
								"raw": {
									"language": "json"
								}
							}
						},
						"url": {
							"raw": "http://localhost:8080/api/v1/child/dew",
							"protocol": "http",
							"host": [
								"localhost"
							],
							"port": "8080",
							"path": [
								"api",
								"v1",
								"child",
								"dew"
							]
						},
						"description": "# This endpoint updates the second parent of a child\r\nThis endpoint requires the request to have a valid Authorization header that is issued by the School Teams auth service.\r\n## Endpoint expectation\r\nThe endpoint updates the second parent of a child\r\n\r\n## Response\r\n### 201 Created\r\nIf everything is good, the endpoint responds with a 201 status.\r\n### 406 Not Acceptable\r\nIf the update didn't happen because of wrong entry the endpoint responds with 406 Not Acceptable.\r\n### 500 INTERNAL SERVER ERROR\r\nIf the method can't update the relationship, the endpoint responds with a 500 status."
					},
					"response": []
				}
			],
			"event": [
				{
					"listen": "prerequest",
					"script": {
						"id": "1943e034-3479-4951-97de-3ce81a67b207",
						"type": "text/javascript",
						"exec": [
							""
						]
					}
				},
				{
					"listen": "test",
					"script": {
						"id": "10a98f2a-dbdf-42b9-b949-e033563ee11a",
						"type": "text/javascript",
						"exec": [
							""
						]
					}
				}
			],
			"protocolProfileBehavior": {}
		},
		{
			"name": "Message",
			"item": [
				{
					"name": "http://localhost:8080/api/v1/message/sent/{username}",
					"request": {
						"method": "GET",
						"header": [],
						"url": {
							"raw": "http://localhost:8080/api/v1/message/sent/lhskage",
							"protocol": "http",
							"host": [
								"localhost"
							],
							"port": "8080",
							"path": [
								"api",
								"v1",
								"message",
								"sent",
								"lhskage"
							]
						},
						"description": "# This endpoint gets sent messages by username\r\nThis endpoint requires the request to have a valid Authorization header that is issued by the School Teams auth service.\r\n## Endpoint expectation\r\nThe endpoint selects sent messages by username\r\n\r\n## Response\r\n### 200 OK\r\nIf everything is good, the endpoint responds with a 200 status and the sent messages.\r\n### 404 Not Found\r\nIf there isn't any messages to get, the endpoint returns a 404 status.\r\n### 500 INTERNAL SERVER ERROR\r\nIf the method can't select the sent messages, the endpoint responds with a 500 status."
					},
					"response": []
				},
				{
					"name": "http://localhost:8080/api/v1/message/send",
					"request": {
						"method": "POST",
						"header": [],
						"body": {
							"mode": "raw",
							"raw": "{\r\n    \"sender\": \"lhskage\",\r\n    \"receiver\": \"dew\",\r\n    \"message\": \"I will be late to class today\"\r\n}",
							"options": {
								"raw": {
									"language": "json"
								}
							}
						},
						"url": {
							"raw": "http://localhost:8080/api/v1/message/send",
							"protocol": "http",
							"host": [
								"localhost"
							],
							"port": "8080",
							"path": [
								"api",
								"v1",
								"message",
								"send"
							]
						},
						"description": "# This endpoint posts a new message\r\nThis endpoint requires the request to have a valid Authorization header that is issued by the School Teams auth service.\r\n## Endpoint expectation\r\nThe endpoint creates a new message\r\n\r\n## Response\r\n### 201 Created\r\nIf everything is good, the endpoint responds with a 200 status and the message.\r\n### 406 Not Acceptable\r\nIf the creation didn't happen because of wrong entry the endpoint responds with 406 Not Acceptable.\r\n### 500 INTERNAL SERVER ERROR\r\nIf the method can't post the message, the endpoint responds with a 500 status."
					},
					"response": []
				},
				{
					"name": "http://localhost:8080/api/v1/message/inbox/{username}",
					"request": {
						"method": "GET",
						"header": [],
						"url": {
							"raw": "http://localhost:8080/api/v1/message/inbox/lhskage",
							"protocol": "http",
							"host": [
								"localhost"
							],
							"port": "8080",
							"path": [
								"api",
								"v1",
								"message",
								"inbox",
								"lhskage"
							]
						},
						"description": "# This endpoint gets received messages by username\r\nThis endpoint requires the request to have a valid Authorization header that is issued by the School Teams auth service.\r\n## Endpoint expectation\r\nThe endpoint selects received messages by username\r\n\r\n## Response\r\n### 200 OK\r\nIf everything is good, the endpoint responds with a 200 status and the messages.\r\n### 404 Not Found\r\nIf there isn't any messages to get, the endpoint returns a 404 status.\r\n### 500 INTERNAL SERVER ERROR\r\nIf the method can't select the messages, the endpoint responds with a 500 status."
					},
					"response": []
				}
			],
			"event": [
				{
					"listen": "prerequest",
					"script": {
						"id": "7828c8c3-e47f-4fbd-a7ac-92a0bfc27336",
						"type": "text/javascript",
						"exec": [
							""
						]
					}
				},
				{
					"listen": "test",
					"script": {
						"id": "6c8addad-9321-4d38-9b12-283b4db40391",
						"type": "text/javascript",
						"exec": [
							""
						]
					}
				}
			],
			"protocolProfileBehavior": {}
		},
		{
			"name": "User",
			"item": [
				{
					"name": "http://localhost:8080/api/v1/user/add",
					"request": {
						"method": "POST",
						"header": [],
						"body": {
							"mode": "raw",
							"raw": "{\r\n        \"username\": \"thisworksss\",\r\n        \"password\": \"terstasd\",\r\n        \"person_id\": 52,\r\n        \"role_id\": 3\r\n    }",
							"options": {
								"raw": {
									"language": "json"
								}
							}
						},
						"url": {
							"raw": "http://localhost:8080/api/v1/user/add",
							"protocol": "http",
							"host": [
								"localhost"
							],
							"port": "8080",
							"path": [
								"api",
								"v1",
								"user",
								"add"
							]
						},
						"description": "# This endpoint posts a new user\r\nThis endpoint requires the request to have a valid Authorization header that is issued by the School Teams auth service.\r\n## Endpoint expectation\r\nThe endpoint creates a new user\r\n\r\n## Response\r\n### 201 Created\r\nIf everything is good, the endpoint responds with a 200 status and the user.\r\n### 406 Not Acceptable\r\nIf the creation didn't happen because of wrong entry the endpoint responds with 406 Not Acceptable.\r\n### 500 INTERNAL SERVER ERROR\r\nIf the method can't post the user, the endpoint responds with a 500 status."
					},
					"response": []
				},
				{
					"name": "http://localhost:8080/api/v1/user/{username}",
					"request": {
						"method": "PUT",
						"header": [],
						"body": {
							"mode": "raw",
							"raw": "{\r\n    \"username\": \"lhskage\",\r\n    \"password\": \"666\"\r\n}",
							"options": {
								"raw": {
									"language": "json"
								}
							}
						},
						"url": {
							"raw": "http://localhost:8080/api/v1/user/lhskage",
							"protocol": "http",
							"host": [
								"localhost"
							],
							"port": "8080",
							"path": [
								"api",
								"v1",
								"user",
								"lhskage"
							]
						},
						"description": "# This endpoint updates a user\r\nThis endpoint requires the request to have a valid Authorization header that is issued by the School Teams auth service.\r\n## Endpoint expectation\r\nThe endpoint updates a new user\r\n\r\n## Response\r\n### 201 Created\r\nIf everything is good, the endpoint responds with a 200 status and the user.\r\n### 406 Not Acceptable\r\nIf the update didn't happen because of wrong entry the endpoint responds with 406 Not Acceptable.\r\n### 500 INTERNAL SERVER ERROR\r\nIf the method can't update the user, the endpoint responds with a 500 status."
					},
					"response": []
				},
				{
					"name": "http://localhost:8080/api/v1/user/admin",
					"request": {
						"method": "GET",
						"header": [],
						"url": {
							"raw": "http://localhost:8080/api/v1/user/admin",
							"protocol": "http",
							"host": [
								"localhost"
							],
							"port": "8080",
							"path": [
								"api",
								"v1",
								"user",
								"admin"
							]
						},
						"description": "# This endpoint gets all administrators\r\nThis endpoint requires the request to have a valid Authorization header that is issued by the School Teams auth service.\r\n## Endpoint expectation\r\nThe endpoint selects all administrators\r\n\r\n## Response\r\n### 200 OK\r\nIf everything is good, the endpoint responds with a 200 status and the team.\r\n### 404 Not Found\r\nIf there isn't any administrators to get, the endpoint returns a 404 status.\r\n### 500 INTERNAL SERVER ERROR\r\nIf the method can't select the administrators, the endpoint responds with a 500 status."
					},
					"response": []
				},
				{
					"name": "http://localhost:8080/api/v1/user/coach",
					"protocolProfileBehavior": {
						"disableBodyPruning": true
					},
					"request": {
						"method": "GET",
						"header": [],
						"body": {
							"mode": "raw",
							"raw": "",
							"options": {
								"raw": {
									"language": "json"
								}
							}
						},
						"url": {
							"raw": "http://localhost:8080/api/v1/user/coach",
							"protocol": "http",
							"host": [
								"localhost"
							],
							"port": "8080",
							"path": [
								"api",
								"v1",
								"user",
								"coach"
							]
						},
						"description": "# This endpoint gets all coaches\r\nThis endpoint requires the request to have a valid Authorization header that is issued by the School Teams auth service.\r\n## Endpoint expectation\r\nThe endpoint selects all coaches\r\n\r\n## Response\r\n### 200 OK\r\nIf everything is good, the endpoint responds with a 200 status and the team.\r\n### 404 Not Found\r\nIf there isn't any coaches to get, the endpoint returns a 404 status.\r\n### 500 INTERNAL SERVER ERROR\r\nIf the method can't select the coaches, the endpoint responds with a 500 status."
					},
					"response": []
				},
				{
					"name": "http://localhost:8080/api/v1/user/parents",
					"request": {
						"method": "GET",
						"header": [],
						"url": {
							"raw": "http://localhost:8080/api/v1/user/parents",
							"protocol": "http",
							"host": [
								"localhost"
							],
							"port": "8080",
							"path": [
								"api",
								"v1",
								"user",
								"parents"
							]
						},
						"description": "# This endpoint gets all parents\r\nThis endpoint requires the request to have a valid Authorization header that is issued by the School Teams auth service.\r\n## Endpoint expectation\r\nThe endpoint selects all parents\r\n\r\n## Response\r\n### 200 OK\r\nIf everything is good, the endpoint responds with a 200 status and the team.\r\n### 404 Not Found\r\nIf there isn't any parents to get, the endpoint returns a 404 status.\r\n### 500 INTERNAL SERVER ERROR\r\nIf the method can't select the parents, the endpoint responds with a 500 status."
					},
					"response": []
				},
				{
					"name": "http://localhost:8080/api/v1/user/players",
					"request": {
						"method": "GET",
						"header": [],
						"url": {
							"raw": "http://localhost:8080/api/v1/user",
							"protocol": "http",
							"host": [
								"localhost"
							],
							"port": "8080",
							"path": [
								"api",
								"v1",
								"user"
							]
						},
						"description": "# This endpoint gets all players\r\nThis endpoint requires the request to have a valid Authorization header that is issued by the School Teams auth service.\r\n## Endpoint expectation\r\nThe endpoint selects all players\r\n\r\n## Response\r\n### 200 OK\r\nIf everything is good, the endpoint responds with a 200 status and the team.\r\n### 404 Not Found\r\nIf there isn't any players to get, the endpoint returns a 404 status.\r\n### 500 INTERNAL SERVER ERROR\r\nIf the method can't select the players, the endpoint responds with a 500 status."
					},
					"response": []
				},
				{
					"name": "http://localhost:8080/api/v1/user/2fa",
					"request": {
						"method": "PATCH",
						"header": [],
						"body": {
							"mode": "raw",
							"raw": "{\r\n    \"username\": \"lhskage\",\r\n    \"active\": true\r\n}",
							"options": {
								"raw": {
									"language": "json"
								}
							}
						},
						"url": {
							"raw": "http://localhost:8080/api/v1/user/2fa",
							"protocol": "http",
							"host": [
								"localhost"
							],
							"port": "8080",
							"path": [
								"api",
								"v1",
								"user",
								"2fa"
							]
						},
						"description": "# This endpoint patches the status of two factor authentication\r\nThis endpoint requires the request to have a valid Authorization header that is issued by the School Teams auth service.\r\n## Endpoint expectation\r\nThe endpoint patches the status of two factor authentication. The status decided if the user wants to use two-factor-authentication.\r\n\r\n## Response\r\n### 200 OK\r\nIf everything is good, the endpoint responds with a 200 status and the sent messages.\r\n### 400 Bad Request\r\nIf the method can't parse the sent data, the endpoint returns status 400.\r\n### 500 INTERNAL SERVER ERROR\r\nIf the method can't update the flag, the endpoint responds with a 500 status."
					},
					"response": []
				},
				{
					"name": "http://localhost:8080/api/v1/user/2fa/qr/usernameTest",
					"request": {
						"method": "GET",
						"header": [],
						"url": {
							"raw": "http://localhost:8080/api/v1/user/2fa/qr/usernameTest",
							"protocol": "http",
							"host": [
								"localhost"
							],
							"port": "8080",
							"path": [
								"api",
								"v1",
								"user",
								"2fa",
								"qr",
								"usernameTest"
							]
						},
						"description": "\r\n## This endpoint gets the qr code url for the user.\r\nThis endpoint requires the request to have a valid Authorization header that is issued by the School Teams auth service. The path variable is the users username.\r\n### Endpoint expectation\r\nThe endpoint selects the qr code url for the user.\r\nResponse\r\n### 200 OK\r\nIf everything is good, the endpoint responds with a 200 status and the url.\r\n### 400 BAD REQUEST\r\nIf the method can't parse the request, the endpoint returns a 400 status.\r\n## 500 INTERNAL SERVER ERROR\r\nIf the method can't select the url, the endpoint responds with a 500 status.\r\n"
					},
					"response": []
				},
				{
					"name": "https://schoolteams-service-admin.herokuapp.com/api/v1/users/2fa/qr/{username}",
					"request": {
						"method": "GET",
						"header": [],
						"url": {
							"raw": "https://schoolteams-service-admin.herokuapp.com/api/v1/users/2fa/qr/lhskage",
							"protocol": "https",
							"host": [
								"schoolteams-service-admin",
								"herokuapp",
								"com"
							],
							"path": [
								"api",
								"v1",
								"users",
								"2fa",
								"qr",
								"lhskage"
							]
						},
						"description": "\r\n## This endpoint gets the 2fa active flag for a user\r\n\r\n## This endpoint requires the request to have a valid Authorization header that is issued by the School Teams auth service. The path variable is the users username.\r\n##Endpoint expectation\r\nThe endpoint selects the qr code url for the user.\r\nResponse\r\n\r\n##200 OK\r\nIf everything is good, the endpoint responds with a 200 status and the boolean.\r\n\r\n##400 BAD REQUEST\r\nIf the method can't parse the request, the endpoint returns a 400 status.\r\n\r\n## 500 INTERNAL SERVER ERROR\r\nIf the method can't select the boolean, the endpoint responds with a 500 status.\r\n"
					},
					"response": []
				}
			],
			"protocolProfileBehavior": {}
		},
		{
			"name": "Team",
			"item": [
				{
					"name": "http://localhost:8080/api/v1/team",
					"request": {
						"method": "GET",
						"header": [],
						"url": {
							"raw": "http://localhost:8080/api/v1/team",
							"protocol": "http",
							"host": [
								"localhost"
							],
							"port": "8080",
							"path": [
								"api",
								"v1",
								"team"
							]
						},
						"description": "# This endpoint gets all teams in the system\r\nThis endpoint requires the request to have a valid Authorization header that is issued by the School Teams auth service.\r\n## Endpoint expectation\r\nThe endpoint selects all teams\r\n\r\n## Response\r\n### 200 OK\r\nIf everything is good, the endpoint responds with a 200 status and the teams.\r\n### 404 Not Found\r\nIf there isn't any team to get, the endpoint returns a 404 status.\r\n### 500 INTERNAL SERVER ERROR\r\nIf the method can't select the teams, the endpoint responds with a 500 status."
					},
					"response": []
				},
				{
					"name": "http://localhost:8080/api/v1/team/{team_id}",
					"request": {
						"method": "GET",
						"header": [],
						"url": {
							"raw": "http://localhost:8080/api/v1/team/15",
							"protocol": "http",
							"host": [
								"localhost"
							],
							"port": "8080",
							"path": [
								"api",
								"v1",
								"team",
								"15"
							]
						},
						"description": "# This endpoint gets team by id\r\nThis endpoint requires the request to have a valid Authorization header that is issued by the School Teams auth service.\r\n## Endpoint expectation\r\nThe endpoint selects team by id\r\n\r\n## Response\r\n### 200 OK\r\nIf everything is good, the endpoint responds with a 200 status and the team.\r\n### 404 Not Found\r\nIf there isn't any team to get, the endpoint returns a 404 status.\r\n### 500 INTERNAL SERVER ERROR\r\nIf the method can't select the team, the endpoint responds with a 500 status."
					},
					"response": []
				},
				{
					"name": "http://localhost:8080/api/v1/team/school/{school_id}",
					"request": {
						"method": "GET",
						"header": [],
						"url": {
							"raw": "http://localhost:8080/api/v1/team/school/1",
							"protocol": "http",
							"host": [
								"localhost"
							],
							"port": "8080",
							"path": [
								"api",
								"v1",
								"team",
								"school",
								"1"
							]
						},
						"description": "# This endpoint gets teams in school\r\nThis endpoint requires the request to have a valid Authorization header that is issued by the School Teams auth service.\r\n## Endpoint expectation\r\nThe endpoint selects teams by school_id\r\n\r\n## Response\r\n### 200 OK\r\nIf everything is good, the endpoint responds with a 200 status and a list of the teams.\r\n### 404 Not Found\r\nIf there isn't any teams to get, the endpoint returns a 404 status.\r\n### 500 INTERNAL SERVER ERROR\r\nIf the method can't select the teams, the endpoint responds with a 500 status."
					},
					"response": []
				},
				{
					"name": "http://localhost:8080/api/v1/team/coach/{username}",
					"request": {
						"method": "GET",
						"header": [],
						"url": {
							"raw": "http://localhost:8080/api/v1/team/coach/amikalsen",
							"protocol": "http",
							"host": [
								"localhost"
							],
							"port": "8080",
							"path": [
								"api",
								"v1",
								"team",
								"coach",
								"amikalsen"
							]
						},
						"description": "# This endpoint gets team by coach\r\nThis endpoint requires the request to have a valid Authorization header that is issued by the School Teams auth service.\r\n## Endpoint expectation\r\nThe endpoint selects team by coach\r\n\r\n## Response\r\n### 200 OK\r\nIf everything is good, the endpoint responds with a 200 status and the teams.\r\n### 404 Not Found\r\nIf there isn't any teams to get, the endpoint returns a 404 status.\r\n### 500 INTERNAL SERVER ERROR\r\nIf the method can't select the teams, the endpoint responds with a 500 status."
					},
					"response": []
				},
				{
					"name": "http://localhost:8080/api/v1/team/sport/{sport_id}",
					"request": {
						"method": "GET",
						"header": [],
						"url": {
							"raw": "http://localhost:8080/api/v1/team/sport/1",
							"protocol": "http",
							"host": [
								"localhost"
							],
							"port": "8080",
							"path": [
								"api",
								"v1",
								"team",
								"sport",
								"1"
							]
						},
						"description": "# This endpoint gets team by sport\r\nThis endpoint requires the request to have a valid Authorization header that is issued by the School Teams auth service.\r\n## Endpoint expectation\r\nThe endpoint selects team by sport\r\n\r\n## Response\r\n### 200 OK\r\nIf everything is good, the endpoint responds with a 200 status and the team.\r\n### 404 Not Found\r\nIf there isn't any teams to get, the endpoint returns a 404 status.\r\n### 500 INTERNAL SERVER ERROR\r\nIf the method can't select the team, the endpoint responds with a 500 status."
					},
					"response": []
				},
				{
					"name": "http://localhost:8080/api/v1/team/player/{username}",
					"request": {
						"method": "GET",
						"header": [],
						"url": {
							"raw": "http://localhost:8080/api/v1/team/player/child2",
							"protocol": "http",
							"host": [
								"localhost"
							],
							"port": "8080",
							"path": [
								"api",
								"v1",
								"team",
								"player",
								"child2"
							]
						},
						"description": "# This endpoint gets team(s) by player\r\nThis endpoint requires the request to have a valid Authorization header that is issued by the School Teams auth service.\r\n## Endpoint expectation\r\nThe endpoint selects team(s) by player\r\n\r\n## Response\r\n### 200 OK\r\nIf everything is good, the endpoint responds with a 200 status and the team(s).\r\n### 404 Not Found\r\nIf there isn't any teams to get, the endpoint returns a 404 status.\r\n### 500 INTERNAL SERVER ERROR\r\nIf the method can't select the team(s), the endpoint responds with a 500 status."
					},
					"response": []
				}
			],
			"protocolProfileBehavior": {}
		},
		{
			"name": "School",
			"item": [
				{
					"name": "http://localhost:8080/api/v1/school/player/{username}",
					"request": {
						"method": "GET",
						"header": [],
						"url": {
							"raw": "http://localhost:8080/api/v1/school/player/lhskage",
							"protocol": "http",
							"host": [
								"localhost"
							],
							"port": "8080",
							"path": [
								"api",
								"v1",
								"school",
								"player",
								"lhskage"
							]
						},
						"description": "# This endpoint gets the school of a player\r\nThis endpoint requires the request to have a valid Authorization header that is issued by the School Teams auth service.\r\n## Endpoint expectation\r\nThe endpoint selects the school of a player\r\n\r\n## Response\r\n### 200 OK\r\nIf everything is good, the endpoint responds with a 200 status and the school of a player.\r\n### 404 Not Found\r\nIf there isn't any school to get, the endpoint returns a 404 status.\r\n### 500 INTERNAL SERVER ERROR\r\nIf the method can't select the school, the endpoint responds with a 500 status."
					},
					"response": []
				}
			],
			"protocolProfileBehavior": {}
		},
		{
			"name": "Statistics",
			"item": [
				{
					"name": "Team",
					"item": [
						{
							"name": "http://localhost:8080/api/v1/statistic/played/team/{team_id}",
							"request": {
								"method": "GET",
								"header": [],
								"url": {
									"raw": "http://localhost:8080/api/v1/statistic/played/team/7",
									"protocol": "http",
									"host": [
										"localhost"
									],
									"port": "8080",
									"path": [
										"api",
										"v1",
										"statistic",
										"played",
										"team",
										"7"
									]
								},
								"description": "# This endpoint gets number of matches played by team\r\nThis endpoint requires the request to have a valid Authorization header that is issued by the School Teams auth service.\r\n## Endpoint expectation\r\nThe endpoint selects the number of matches played by team\r\n\r\n## Response\r\n### 200 OK\r\nIf everything is good, the endpoint responds with a 200 status and the count.\r\n### 404 Not Found\r\nIf there isn't any stats to get, the endpoint returns a 404 status.\r\n### 500 INTERNAL SERVER ERROR\r\nIf the method can't select the matches, the endpoint responds with a 500 status."
							},
							"response": []
						},
						{
							"name": "http://localhost:8080/api/v1/statistic/wins/team/{team_id}",
							"request": {
								"method": "GET",
								"header": [],
								"url": {
									"raw": "http://localhost:8080/api/v1/statistic/wins/team/7",
									"protocol": "http",
									"host": [
										"localhost"
									],
									"port": "8080",
									"path": [
										"api",
										"v1",
										"statistic",
										"wins",
										"team",
										"7"
									]
								},
								"description": "# This endpoint gets number of matches won by team\r\nThis endpoint requires the request to have a valid Authorization header that is issued by the School Teams auth service.\r\n## Endpoint expectation\r\nThe endpoint selects the number of matches won by team\r\n\r\n## Response\r\n### 200 OK\r\nIf everything is good, the endpoint responds with a 200 status and the count.\r\n### 404 Not Found\r\nIf there isn't any stats to get, the endpoint returns a 404 status.\r\n### 500 INTERNAL SERVER ERROR\r\nIf the method can't select the matches, the endpoint responds with a 500 status."
							},
							"response": []
						},
						{
							"name": "http://localhost:8080/api/v1/statistic/losses/team/{team_id}",
							"request": {
								"method": "GET",
								"header": [],
								"url": {
									"raw": "http://localhost:8080/api/v1/statistic/losses/team/7",
									"protocol": "http",
									"host": [
										"localhost"
									],
									"port": "8080",
									"path": [
										"api",
										"v1",
										"statistic",
										"losses",
										"team",
										"7"
									]
								},
								"description": "# This endpoint gets number of matches lost by team\r\nThis endpoint requires the request to have a valid Authorization header that is issued by the School Teams auth service.\r\n## Endpoint expectation\r\nThe endpoint selects the number of matches lost by team\r\n\r\n## Response\r\n### 200 OK\r\nIf everything is good, the endpoint responds with a 200 status and the count.\r\n### 404 Not Found\r\nIf there isn't any stats to get, the endpoint returns a 404 status.\r\n### 500 INTERNAL SERVER ERROR\r\nIf the method can't select the matches, the endpoint responds with a 500 status."
							},
							"response": []
						},
						{
							"name": "http://localhost:8080/api/v1/statistic/draws/team/{team_id}",
							"request": {
								"method": "GET",
								"header": [],
								"url": {
									"raw": "http://localhost:8080/api/v1/statistic/draws/team/7",
									"protocol": "http",
									"host": [
										"localhost"
									],
									"port": "8080",
									"path": [
										"api",
										"v1",
										"statistic",
										"draws",
										"team",
										"7"
									]
								},
								"description": "# This endpoint gets number of matches drawn by team\r\nThis endpoint requires the request to have a valid Authorization header that is issued by the School Teams auth service.\r\n## Endpoint expectation\r\nThe endpoint selects the number of matches drawn by team\r\n\r\n## Response\r\n### 200 OK\r\nIf everything is good, the endpoint responds with a 200 status and the count.\r\n### 404 Not Found\r\nIf there isn't any stats to get, the endpoint returns a 404 status.\r\n### 500 INTERNAL SERVER ERROR\r\nIf the method can't select the matches, the endpoint responds with a 500 status."
							},
							"response": []
						},
						{
							"name": "http://localhost:8080/api/v1/statistic/stats/team/{team_id}",
							"request": {
								"method": "GET",
								"header": [],
								"url": {
									"raw": "http://localhost:8080/api/v1/statistic/stats/team/7",
									"protocol": "http",
									"host": [
										"localhost"
									],
									"port": "8080",
									"path": [
										"api",
										"v1",
										"statistic",
										"stats",
										"team",
										"7"
									]
								},
								"description": "# This endpoint gets a report of previous played matches.\r\nThis endpoint requires the request to have a valid Authorization header that is issued by the School Teams auth service.\r\n## Endpoint expectation\r\nThe endpoint gets a report of previous played matches. Includes played, wins, draws and losses. \r\n\r\n## Response\r\n### 200 OK\r\nIf everything is good, the endpoint responds with a 200 status and the report.\r\n### 404 Not Found\r\nIf there isn't any stats to get, the endpoint returns a 404 status.\r\n### 500 INTERNAL SERVER ERROR\r\nIf the method can't generate the report, the endpoint responds with a 500 status."
							},
							"response": []
						}
					],
					"protocolProfileBehavior": {},
					"_postman_isSubFolder": true
				},
				{
					"name": "School",
					"item": [
						{
							"name": "http://localhost:8080/api/v1/statistic/played/school/{school_id}",
							"request": {
								"method": "GET",
								"header": [],
								"url": {
									"raw": "http://localhost:8080/api/v1/statistic/played/school/1",
									"protocol": "http",
									"host": [
										"localhost"
									],
									"port": "8080",
									"path": [
										"api",
										"v1",
										"statistic",
										"played",
										"school",
										"1"
									]
								},
								"description": "# This endpoint gets number of matches played by school\r\nThis endpoint requires the request to have a valid Authorization header that is issued by the School Teams auth service.\r\n## Endpoint expectation\r\nThe endpoint selects the number of matches played by team\r\n\r\n## Response\r\n### 200 OK\r\nIf everything is good, the endpoint responds with a 200 status and the count.\r\n### 404 Not Found\r\nIf there isn't any stats to get, the endpoint returns a 404 status.\r\n### 500 INTERNAL SERVER ERROR\r\nIf the method can't select the matches, the endpoint responds with a 500 status."
							},
							"response": []
						},
						{
							"name": "http://localhost:8080/api/v1/statistic/wins/school/{school_id}",
							"request": {
								"method": "GET",
								"header": [],
								"url": {
									"raw": "http://localhost:8080/api/v1/statistic/wins/school/1",
									"protocol": "http",
									"host": [
										"localhost"
									],
									"port": "8080",
									"path": [
										"api",
										"v1",
										"statistic",
										"wins",
										"school",
										"1"
									]
								},
								"description": "# This endpoint gets number of matches won by school\r\nThis endpoint requires the request to have a valid Authorization header that is issued by the School Teams auth service.\r\n## Endpoint expectation\r\nThe endpoint selects the number of matches won by school\r\n\r\n## Response\r\n### 200 OK\r\nIf everything is good, the endpoint responds with a 200 status and the count.\r\n### 404 Not Found\r\nIf there isn't any stats to get, the endpoint returns a 404 status.\r\n### 500 INTERNAL SERVER ERROR\r\nIf the method can't select the matches, the endpoint responds with a 500 status."
							},
							"response": []
						},
						{
							"name": "http://localhost:8080/api/v1/statistic/losses/school/{school_id}",
							"request": {
								"method": "GET",
								"header": [],
								"url": {
									"raw": "http://localhost:8080/api/v1/statistic/losses/school/1",
									"protocol": "http",
									"host": [
										"localhost"
									],
									"port": "8080",
									"path": [
										"api",
										"v1",
										"statistic",
										"losses",
										"school",
										"1"
									]
								},
								"description": "# This endpoint gets number of matches lost by team\r\nThis endpoint requires the request to have a valid Authorization header that is issued by the School Teams auth service.\r\n## Endpoint expectation\r\nThe endpoint selects the number of matches lost by team\r\n\r\n## Response\r\n### 200 OK\r\nIf everything is good, the endpoint responds with a 200 status and the count.\r\n### 404 Not Found\r\nIf there isn't any stats to get, the endpoint returns a 404 status.\r\n### 500 INTERNAL SERVER ERROR\r\nIf the method can't select the matches, the endpoint responds with a 500 status."
							},
							"response": []
						},
						{
							"name": "http://localhost:8080/api/v1/statistic/draws/school/{school_id}",
							"request": {
								"method": "GET",
								"header": [],
								"url": {
									"raw": "http://localhost:8080/api/v1/statistic/draws/school/1",
									"protocol": "http",
									"host": [
										"localhost"
									],
									"port": "8080",
									"path": [
										"api",
										"v1",
										"statistic",
										"draws",
										"school",
										"1"
									]
								},
								"description": "# This endpoint gets number of matches drawn by team\r\nThis endpoint requires the request to have a valid Authorization header that is issued by the School Teams auth service.\r\n## Endpoint expectation\r\nThe endpoint selects the number of matches drawn by team\r\n\r\n## Response\r\n### 200 OK\r\nIf everything is good, the endpoint responds with a 200 status and the count.\r\n### 404 Not Found\r\nIf there isn't any stats to get, the endpoint returns a 404 status.\r\n### 500 INTERNAL SERVER ERROR\r\nIf the method can't select the matches, the endpoint responds with a 500 status."
							},
							"response": []
						},
						{
							"name": "http://localhost:8080/api/v1/statistic/stats/school/{school_id}",
							"request": {
								"method": "GET",
								"header": [],
								"url": {
									"raw": "http://localhost:8080/api/v1/statistic/stats/school/1",
									"protocol": "http",
									"host": [
										"localhost"
									],
									"port": "8080",
									"path": [
										"api",
										"v1",
										"statistic",
										"stats",
										"school",
										"1"
									]
								},
								"description": "# This endpoint gets a report of previous played matches by school.\r\nThis endpoint requires the request to have a valid Authorization header that is issued by the School Teams auth service.\r\n## Endpoint expectation\r\nThe endpoint gets a report of previous played matches. Includes played, wins, draws and losses and points (3p if win, 1p if draw, 0p if loss). \r\n\r\n## Response\r\n### 200 OK\r\nIf everything is good, the endpoint responds with a 200 status and the report.\r\n### 404 Not Found\r\nIf there isn't any stats to get, the endpoint returns a 404 status.\r\n### 500 INTERNAL SERVER ERROR\r\nIf the method can't generate the report, the endpoint responds with a 500 status."
							},
							"response": []
						}
					],
					"protocolProfileBehavior": {},
					"_postman_isSubFolder": true
				},
				{
					"name": "Player",
					"item": [
						{
							"name": "http://localhost:8080/api/v1/statistic/played/player/{username}",
							"request": {
								"method": "GET",
								"header": [],
								"url": {
									"raw": "http://localhost:8080/api/v1/statistic/played/player/tbhatt",
									"protocol": "http",
									"host": [
										"localhost"
									],
									"port": "8080",
									"path": [
										"api",
										"v1",
										"statistic",
										"played",
										"player",
										"tbhatt"
									]
								},
								"description": "# This endpoint gets number of matches played by player\r\nThis endpoint requires the request to have a valid Authorization header that is issued by the School Teams auth service.\r\n## Endpoint expectation\r\nThe endpoint selects the number of matches played by player\r\n\r\n## Response\r\n### 200 OK\r\nIf everything is good, the endpoint responds with a 200 status and the count.\r\n### 404 Not Found\r\nIf there isn't any stats to get, the endpoint returns a 404 status.\r\n### 500 INTERNAL SERVER ERROR\r\nIf the method can't select the matches, the endpoint responds with a 500 status."
							},
							"response": []
						}
					],
					"protocolProfileBehavior": {},
					"_postman_isSubFolder": true
				}
			],
			"protocolProfileBehavior": {}
		},
		{
			"name": "Match",
			"item": [
				{
					"name": "http://localhost:8080/api/v1/matches",
					"request": {
						"method": "GET",
						"header": [],
						"url": {
							"raw": "http://localhost:8080/api/v1/matches",
							"protocol": "http",
							"host": [
								"localhost"
							],
							"port": "8080",
							"path": [
								"api",
								"v1",
								"matches"
							]
						},
						"description": "# This endpoint gets all matches\r\nThis endpoint requires the request to have a valid Authorization header that is issued by the School Teams auth service.\r\n## Endpoint expectation\r\nThe endpoint selects all matches\r\n\r\n## Response\r\n### 200 OK\r\nIf everything is good, the endpoint responds with a 200 status and the matches.\r\n### 404 Not Found\r\nIf there isn't any matches to get, the endpoint returns a 404 status.\r\n### 500 INTERNAL SERVER ERROR\r\nIf the method can't select the matches, the endpoint responds with a 500 status."
					},
					"response": []
				},
				{
					"name": "http://localhost:8080/api/v1/matches/upcoming",
					"request": {
						"method": "GET",
						"header": [],
						"url": {
							"raw": "http://localhost:8080/api/v1/matches/upcoming",
							"protocol": "http",
							"host": [
								"localhost"
							],
							"port": "8080",
							"path": [
								"api",
								"v1",
								"matches",
								"upcoming"
							]
						},
						"description": "# This endpoint gets upcoming matches\r\nThis endpoint requires the request to have a valid Authorization header that is issued by the School Teams auth service.\r\n## Endpoint expectation\r\nThe endpoint selects upcoming matches\r\n\r\n## Response\r\n### 200 OK\r\nIf everything is good, the endpoint responds with a 200 status and the upcoming matches.\r\n### 404 Not Found\r\nIf there isn't any matches to get, the endpoint returns a 404 status.\r\n### 500 INTERNAL SERVER ERROR\r\nIf the method can't select the upcoming matches, the endpoint responds with a 500 status."
					},
					"response": []
				},
				{
					"name": "http://localhost:8080/api/v1/matches/previous",
					"request": {
						"method": "GET",
						"header": [],
						"url": {
							"raw": "http://localhost:8080/api/v1/matches/previous",
							"protocol": "http",
							"host": [
								"localhost"
							],
							"port": "8080",
							"path": [
								"api",
								"v1",
								"matches",
								"previous"
							]
						},
						"description": "# This endpoint gets previous matches\r\nThis endpoint requires the request to have a valid Authorization header that is issued by the School Teams auth service.\r\n## Endpoint expectation\r\nThe endpoint selects previous matches\r\n\r\n## Response\r\n### 200 OK\r\nIf everything is good, the endpoint responds with a 200 status and the previous matches.\r\n### 404 Not Found\r\nIf there isn't any matches to get, the endpoint returns a 404 status.\r\n### 500 INTERNAL SERVER ERROR\r\nIf the method can't select the previous matches, the endpoint responds with a 500 status."
					},
					"response": []
				},
				{
					"name": "http://localhost:8080/api/v1/matches/{username}",
					"request": {
						"method": "GET",
						"header": [],
						"url": {
							"raw": "http://localhost:8080/api/v1/matches/amikalsen",
							"protocol": "http",
							"host": [
								"localhost"
							],
							"port": "8080",
							"path": [
								"api",
								"v1",
								"matches",
								"amikalsen"
							]
						},
						"description": "# This endpoint gets matches involving a specified child\r\nThis endpoint requires the request to have a valid Authorization header that is issued by the School Teams auth service.\r\n## Endpoint expectation\r\nThe endpoint selects matches involving a specified child\r\n\r\n## Response\r\n### 200 OK\r\nIf everything is good, the endpoint responds with a 200 status and the matches.\r\n### 404 Not Found\r\nIf there isn't any matches to get, the endpoint returns a 404 status.\r\n### 500 INTERNAL SERVER ERROR\r\nIf the method can't select the matches, the endpoint responds with a 500 status."
					},
					"response": []
				},
				{
					"name": "http://localhost:8080/api/v1/matches/upcoming/{username}",
					"request": {
						"method": "GET",
						"header": [],
						"url": {
							"raw": "http://localhost:8080/api/v1/matches/upcoming/lhskage",
							"protocol": "http",
							"host": [
								"localhost"
							],
							"port": "8080",
							"path": [
								"api",
								"v1",
								"matches",
								"upcoming",
								"lhskage"
							]
						},
						"description": "# This endpoint gets upcoming matches by player\r\nThis endpoint requires the request to have a valid Authorization header that is issued by the School Teams auth service.\r\n## Endpoint expectation\r\nThe endpoint selects upcoming matches\r\n\r\n## Response\r\n### 200 OK\r\nIf everything is good, the endpoint responds with a 200 status and the upcoming matches.\r\n### 404 Not Found\r\nIf there isn't any matches to get, the endpoint returns a 404 status.\r\n### 500 INTERNAL SERVER ERROR\r\nIf the method can't select the upcoming matches, the endpoint responds with a 500 status."
					},
					"response": []
				},
				{
					"name": "http://localhost:8080/api/v1/matches/previous/{username}",
					"request": {
						"method": "GET",
						"header": [],
						"url": {
							"raw": "http://localhost:8080/api/v1/matches/previous/lhskage",
							"protocol": "http",
							"host": [
								"localhost"
							],
							"port": "8080",
							"path": [
								"api",
								"v1",
								"matches",
								"previous",
								"lhskage"
							]
						},
						"description": "# This endpoint gets previous matches where specified player has played\r\nThis endpoint requires the request to have a valid Authorization header that is issued by the School Teams auth service.\r\n## Endpoint expectation\r\nThe endpoint selects previous matches by username\r\n\r\n## Response\r\n### 200 OK\r\nIf everything is good, the endpoint responds with a 200 status and the previous matches.\r\n### 404 Not Found\r\nIf there isn't any matches to get, the endpoint returns a 404 status.\r\n### 500 INTERNAL SERVER ERROR\r\nIf the method can't select the previous matches, the endpoint responds with a 500 status."
					},
					"response": []
				},
				{
					"name": "http://localhost:8080/api/v1/matches/school/{school_id}",
					"request": {
						"method": "GET",
						"header": [],
						"url": {
							"raw": "http://localhost:8080/api/v1/matches/school/1",
							"protocol": "http",
							"host": [
								"localhost"
							],
							"port": "8080",
							"path": [
								"api",
								"v1",
								"matches",
								"school",
								"1"
							]
						},
						"description": "# This endpoint gets all matches by school\r\nThis endpoint requires the request to have a valid Authorization header that is issued by the School Teams auth service.\r\n## Endpoint expectation\r\nThe endpoint selects all matches by school\r\n\r\n## Response\r\n### 200 OK\r\nIf everything is good, the endpoint responds with a 200 status and the matches.\r\n### 404 Not Found\r\nIf there isn't any matches to get, the endpoint returns a 404 status.\r\n### 500 INTERNAL SERVER ERROR\r\nIf the method can't select the matches, the endpoint responds with a 500 status."
					},
					"response": []
				},
				{
					"name": "http://localhost:8080/api/v1/matches/upcoming/school/{school_id}",
					"request": {
						"method": "GET",
						"header": [],
						"url": {
							"raw": "http://localhost:8080/api/v1/matches/upcoming/school/1",
							"protocol": "http",
							"host": [
								"localhost"
							],
							"port": "8080",
							"path": [
								"api",
								"v1",
								"matches",
								"upcoming",
								"school",
								"1"
							]
						},
						"description": "# This endpoint gets upcoming matches by school\r\nThis endpoint requires the request to have a valid Authorization header that is issued by the School Teams auth service.\r\n## Endpoint expectation\r\nThe endpoint selects upcoming matches by school\r\n\r\n## Response\r\n### 200 OK\r\nIf everything is good, the endpoint responds with a 200 status and the upcoming matches.\r\n### 404 Not Found\r\nIf there isn't any matches to get, the endpoint returns a 404 status.\r\n### 500 INTERNAL SERVER ERROR\r\nIf the method can't select the upcoming matches, the endpoint responds with a 500 status."
					},
					"response": []
				},
				{
					"name": "http://localhost:8080/api/v1/matches/previous/school/{school_id}",
					"request": {
						"method": "GET",
						"header": [],
						"url": {
							"raw": "http://localhost:8080/api/v1/matches/previous/school/1",
							"protocol": "http",
							"host": [
								"localhost"
							],
							"port": "8080",
							"path": [
								"api",
								"v1",
								"matches",
								"previous",
								"school",
								"1"
							]
						},
						"description": "# This endpoint gets previous matches by school\r\nThis endpoint requires the request to have a valid Authorization header that is issued by the School Teams auth service.\r\n## Endpoint expectation\r\nThe endpoint selects previous matches by school\r\n\r\n## Response\r\n### 200 OK\r\nIf everything is good, the endpoint responds with a 200 status and the previous matches.\r\n### 404 Not Found\r\nIf there isn't any matches to get, the endpoint returns a 404 status.\r\n### 500 INTERNAL SERVER ERROR\r\nIf the method can't select the previous matches, the endpoint responds with a 500 status."
					},
					"response": []
				},
				{
					"name": "http://localhost:8080/api/v1/matches/cancelled/school/{school_id}",
					"request": {
						"method": "GET",
						"header": [],
						"url": {
							"raw": "http://localhost:8080/api/v1/matches/cancelled/school/1",
							"protocol": "http",
							"host": [
								"localhost"
							],
							"port": "8080",
							"path": [
								"api",
								"v1",
								"matches",
								"cancelled",
								"school",
								"1"
							]
						},
						"description": "# This endpoint gets cancelled matches by school\r\nThis endpoint requires the request to have a valid Authorization header that is issued by the School Teams auth service.\r\n## Endpoint expectation\r\nThe endpoint selects cancelled matches by school\r\n\r\n## Response\r\n### 200 OK\r\nIf everything is good, the endpoint responds with a 200 status and the cancelled matches.\r\n### 404 Not Found\r\nIf there isn't any matches to get, the endpoint returns a 404 status.\r\n### 500 INTERNAL SERVER ERROR\r\nIf the method can't select the cancelled matches, the endpoint responds with a 500 status."
					},
					"response": []
				},
				{
					"name": "http://localhost:8080/api/v1/matches/team/{team_id}",
					"request": {
						"method": "GET",
						"header": [],
						"url": {
							"raw": "http://localhost:8080/api/v1/matches/team/7",
							"protocol": "http",
							"host": [
								"localhost"
							],
							"port": "8080",
							"path": [
								"api",
								"v1",
								"matches",
								"team",
								"7"
							]
						},
						"description": "# This endpoint gets previous matches by team\r\nThis endpoint requires the request to have a valid Authorization header that is issued by the School Teams auth service.\r\n## Endpoint expectation\r\nThe endpoint selects previous matches by team\r\n\r\n## Response\r\n### 200 OK\r\nIf everything is good, the endpoint responds with a 200 status and the previous matches.\r\n### 404 Not Found\r\nIf there isn't any matches to get, the endpoint returns a 404 status.\r\n### 500 INTERNAL SERVER ERROR\r\nIf the method can't select the previous matches, the endpoint responds with a 500 status."
					},
					"response": []
				},
				{
					"name": "http://localhost:8080/api/v1/matches/upcoming/team/{team_id}",
					"request": {
						"method": "GET",
						"header": [],
						"url": {
							"raw": "http://localhost:8080/api/v1/matches/upcoming/team/7",
							"protocol": "http",
							"host": [
								"localhost"
							],
							"port": "8080",
							"path": [
								"api",
								"v1",
								"matches",
								"upcoming",
								"team",
								"7"
							]
						},
						"description": "# This endpoint gets upcoming matches by team\r\nThis endpoint requires the request to have a valid Authorization header that is issued by the School Teams auth service.\r\n## Endpoint expectation\r\nThe endpoint selects upcoming matches by team\r\n\r\n## Response\r\n### 200 OK\r\nIf everything is good, the endpoint responds with a 200 status and the upcoming matches.\r\n### 404 Not Found\r\nIf there isn't any matches to get, the endpoint returns a 404 status.\r\n### 500 INTERNAL SERVER ERROR\r\nIf the method can't select the upcoming matches, the endpoint responds with a 500 status."
					},
					"response": []
				},
				{
					"name": "http://localhost:8080/api/v1/matches/previous/team/{team_id}",
					"request": {
						"method": "GET",
						"header": [],
						"url": {
							"raw": "http://localhost:8080/api/v1/matches/previous/team/7",
							"protocol": "http",
							"host": [
								"localhost"
							],
							"port": "8080",
							"path": [
								"api",
								"v1",
								"matches",
								"previous",
								"team",
								"7"
							]
						},
						"description": "# This endpoint gets previous matches by team\r\nThis endpoint requires the request to have a valid Authorization header that is issued by the School Teams auth service.\r\n## Endpoint expectation\r\nThe endpoint selects previous matches by team\r\n\r\n## Response\r\n### 200 OK\r\nIf everything is good, the endpoint responds with a 200 status and the previous matches.\r\n### 404 Not Found\r\nIf there isn't any matches to get, the endpoint returns a 404 status.\r\n### 500 INTERNAL SERVER ERROR\r\nIf the method can't select the previous matches, the endpoint responds with a 500 status."
					},
					"response": []
				},
				{
					"name": "http://localhost:8080/api/v1/matches/cancelled/team/{team_id}",
					"request": {
						"method": "GET",
						"header": [],
						"url": {
							"raw": "http://localhost:8080/api/v1/matches/cancelled/team/7",
							"protocol": "http",
							"host": [
								"localhost"
							],
							"port": "8080",
							"path": [
								"api",
								"v1",
								"matches",
								"cancelled",
								"team",
								"7"
							]
						},
						"description": "# This endpoint gets previous matches by team\r\nThis endpoint requires the request to have a valid Authorization header that is issued by the School Teams auth service.\r\n## Endpoint expectation\r\nThe endpoint selects previous matches by team\r\n\r\n## Response\r\n### 200 OK\r\nIf everything is good, the endpoint responds with a 200 status and the previous matches.\r\n### 404 Not Found\r\nIf there isn't any matches to get, the endpoint returns a 404 status.\r\n### 500 INTERNAL SERVER ERROR\r\nIf the method can't select the previous matches, the endpoint responds with a 500 status."
					},
					"response": []
				}
			],
			"protocolProfileBehavior": {}
		}
	],
	"event": [
		{
			"listen": "prerequest",
			"script": {
				"id": "39c77e74-3c2b-4c87-bebb-b697403840e2",
				"type": "text/javascript",
				"exec": [
					""
				]
			}
		},
		{
			"listen": "test",
			"script": {
				"id": "16073cdf-faa3-4330-8f82-c9adfa4977e0",
				"type": "text/javascript",
				"exec": [
					""
				]
			}
		}
	],
	"protocolProfileBehavior": {}
}